<svg xmlns="http://www.w3.org/2000/svg" width="159.157" height="159.643" viewBox="0 0 159.157 159.643">
  <g id="Group_3764" data-name="Group 3764" transform="translate(18.579 -535.569)">
    <path id="Path_3621" data-name="Path 3621" d="M0,126.206l47.174-.81a13.278,13.278,0,0,0,4.057-.693l13.588-4.6a11.559,11.559,0,0,0,6.432-5.168l6.977-12.387a9.625,9.625,0,0,0,1.251-5.136l-.2-4.9c-.393-9.42-6.136-18.021-15.256-22.846L34.11,53.848l11.013-4.888A21.893,21.893,0,0,0,56.358,38.116L61.864,25.9a3.223,3.223,0,0,0-.138-2.937L47.379,5.052A4.048,4.048,0,0,0,44.329,3.1L.947,0Z" transform="translate(-18.579 579.917) rotate(-24)" fill="#fff"/>
    <path id="Path_3622" data-name="Path 3622" d="M16.109,84.285V.989L0,0,4.738,85.279Z" transform="translate(69.128 542.121) rotate(-24)" fill="#fff"/>
    <path id="Path_3623" data-name="Path 3623" d="M18.533,18.49c2.569-2.472,5.765-5.78,4.38-9.681-.61-3.039-2.262-6.1-5.5-6.862C13.733,1.124,7.952-1.7,4.646,1.467.81,3.462.493,8.52.074,12.289-1.074,24.323,11.465,25.721,18.533,18.49Z" transform="translate(110.026 631.595) rotate(-24)" fill="#fff"/>
  </g>
</svg>
