<svg xmlns="http://www.w3.org/2000/svg" width="494.031" height="481.717" viewBox="0 0 494.031 481.717">
  <path id="Path_3141" data-name="Path 3141" d="M348.987.975l-7.9,63.013,48.936,39.492a62.6,62.6,0,0,1,13.287,42.182l-4.589,77.625A63.189,63.189,0,0,1,383,261.167l-61.437,70.22A69.928,69.928,0,0,1,288.3,352.344L180.428,383.538a73.488,73.488,0,0,1-54.951-5.721l-55.4-29.753a67,67,0,0,1-28.937-29.973L6.1,244.751a61.785,61.785,0,0,1-5.081-37.912l14.3-77.675A64.1,64.1,0,0,1,34.672,94.1L88.129,43.861A70.146,70.146,0,0,1,112.464,29.03l44.86-16.119c15.02-5.4,52.017-6.034,67.274-1.254l62.932,15.5L313.022,12.9Z" transform="translate(387.517 482.654) rotate(-164)" fill="#fff"/>
</svg>
