<svg xmlns="http://www.w3.org/2000/svg" width="157.861" height="122.679" viewBox="0 0 157.861 122.679">
  <g id="Group_3237" data-name="Group 3237" transform="translate(-8073.235 11.252) rotate(16)">
    <path id="Path_3136" data-name="Path 3136" d="M7919.782-2210.491l-1.026-31.521-53.021.773,0,.209-83,27.879.308,9.194,82.98-17.6.133,9-.665,20.483-14.552,2.314.4-21.932-22.2,5.184-1.009,19.141-15.133,1.2-1.127-15.552-17.671,2.557-.875,15.388-11.6,1.2-1.009,10.767v17.546h13.021l1.1-11.963,17.151-1.595.5,12.76h19.168l.67-16.349,16.985-1.2v17.147h20.682l0-.1h2.646l1.976-27.078,35.387,1.548.4,26.029,7.918-.424.792-37.158Z" transform="translate(-0.08 -0.756)" fill="#f9f7ec"/>
  </g>
</svg>
