<svg xmlns="http://www.w3.org/2000/svg" width="219.895" height="40" viewBox="0 0 219.895 40">
  <path id="Path_2405" data-name="Path 2405" d="M2513.6,50.612V68.356l2.649,15.87,160.585,2.913,56.661-2.913-2.229-37.087H2539.987Z" transform="translate(-2513.598 -47.139)" fill="#c0d2f5"/>
</svg>
