<svg id="Group_3775" data-name="Group 3775" xmlns="http://www.w3.org/2000/svg" width="19.212" height="17.614" viewBox="0 0 19.212 17.614">
  <path id="Path_3631" data-name="Path 3631" d="M-1222.084,119.622l-.425,5.76.425,6.094,2.923.079.8-8.539-.029-3.394Z" transform="translate(1222.598 -114.014)"/>
  <path id="Path_3632" data-name="Path 3632" d="M-1115.493,111.568l.507,12.077,3.681-.223v-6.388l.516-2.073,1.542-.341,1.424.558.7,2.139v6.175h4.188l.172-7.736-.741-3.013-2.507-1.492-3.554.308-1.746,1.854-.489-2.281Z" transform="translate(1121.969 -106.031)"/>
  <path id="Path_3633" data-name="Path 3633" d="M-1223.214,26.12l-.259.356a.953.953,0,0,0-.1.167l-.346.766a.948.948,0,0,0-.053.631l.18.687a.948.948,0,0,0,.52.62l.429.2a.949.949,0,0,0,.221.071l.457.087a.948.948,0,0,0,.7-.141l1.059-.7a.948.948,0,0,0,.424-.78l0-.451a.948.948,0,0,0-.044-.3l-.321-1.013a.948.948,0,0,0-.961-.659l-1.2.073A.948.948,0,0,0-1223.214,26.12Z" transform="translate(1224 -25.657)"/>
</svg>
