<svg xmlns="http://www.w3.org/2000/svg" width="60" height="59.996" viewBox="0 0 60 59.996">
  <g id="Group_3645" data-name="Group 3645" transform="translate(-832 -3825.812)">
    <path id="Path_2646" data-name="Path 2646" d="M13.253,7.217C1.13,21.094-.6,21.168.151,38.775-.227,57.418,17.086,59.409,32.566,59.9c8.341.809,14.5-3.458,19.706-8.635,5.248-4.481,6.957-14.5,7.55-20.855,1.22-13.055-4.087-22.1-8.269-25.429-7.068-6.305-14.936-5-23.9-4.556A20.456,20.456,0,0,0,13.253,7.217Z" transform="translate(832 3825.812)" fill="#fff"/>
    <text id="LIRE" transform="translate(862 3859.31)" font-size="11" font-family="SegoeUI, Segoe UI" letter-spacing="0.1em"><tspan x="-11.775" y="0">LIRE</tspan></text>
  </g>
</svg>
