<svg xmlns="http://www.w3.org/2000/svg" width="216.394" height="40" viewBox="0 0 216.394 40">
  <path id="Path_2405" data-name="Path 2405" d="M2513.6,50.612V68.356l2.607,15.87,158.028,2.913,55.759-2.913-4.65-37.087H2539.566Z" transform="translate(-2513.598 -47.139)"/>
</svg>
