<svg id="Mail" xmlns="http://www.w3.org/2000/svg" width="24.846" height="18.374" viewBox="0 0 24.846 18.374">
  <path id="Path_3672" data-name="Path 3672" d="M0,14.3l1.758,7.868L3.1,26.822,21.1,23.907l3.742-.511-.884-9.1L22.653,9.06,12.279,19.127Z" transform="translate(0 -8.448)" fill="#fff"/>
  <path id="Path_3673" data-name="Path 3673" d="M3.75,3.926,16.266,8.458,25.248,0,10.861,1.34Z" transform="translate(-3.497)" fill="#fff"/>
</svg>
