<svg xmlns="http://www.w3.org/2000/svg" width="12.634" height="12.916" viewBox="0 0 12.634 12.916">
  <path id="Path_2408" data-name="Path 2408" d="M411.791,689.554c-2.553,2.988-2.918,3-2.759,6.794-.079,4.014,3.566,4.442,6.826,4.547a5.036,5.036,0,0,0,4.149-1.859c1.1-.965,1.465-3.122,1.59-4.49a6.458,6.458,0,0,0-1.741-5.474c-1.488-1.357-3.145-1.077-5.033-.981A4.271,4.271,0,0,0,411.791,689.554Z" transform="translate(-409 -688)" fill="#faf08f"/>
</svg>
