<svg xmlns="http://www.w3.org/2000/svg" width="154.828" height="113.08" viewBox="0 0 154.828 113.08">
  <path id="Check" d="M11.467,35.324,0,56.2,63.534,113.08l91.294-93.127L141.523,0,128.218,10.551,65.6,75.007,38.078,50.462Z" fill="#fff"/>
</svg>
